{
  "d&d-5e": {
    "name": "Dungeons & Dragons - 5th Edition",
    "effects": [
      {
        "name": "Checking the weather",
        "rules": [
          "PC's can make a Nature check to see if they can predcit the next day's weather"
        ]
      },
      {
        "name": "Artic Cold",
        "rules": [
          "When you spend a day outside in the artic cold make a DC 10 Constitution saving throw or gain 1 level of exhaustion"
        ]
      },
      {
        "name": "Unbearable Heat",
        "rules": [
          "When you spend a day outside in the unbearable heat make a DC 10 Constitution saving thow or gain 1 level of exhaustion"
        ]
      },
      {
        "name": "Strong Wind",
        "rules": [
          "In strong wind, effective weapon range is reduced by 20%",
          "Because flying is difficult during strong winds, all medium and smaller creatures must either land at the end of their turn, or make a Dexterity or Strength saving throw or fall from the sky"
        ]
      },
      {
        "name": "Gale",
        "rules": [
          "During a gale, effective weapon range is reduced by 35%",
          "The loudness of the wind causes disadvantage on all Perception checks that rely on hearing",
          "Because flying is extremely difficult during a gale, all large and smaller creatures must either land at the end of their turn, or make a Dexterity or Streght saving throw or fall from the sky",
          "During a gale in the desert, there is a chance of a sandstorm"
        ]
      },
      {
        "name": "Storm",
        "rules": [
          "During storms effective weapon range is reduced by 50%",
          "The loudness of the wind causes disadvantage on all Perception checks that rely on hearing",
          "Because flying is almost impossible during storms, all large (and smaller) sized creatures must either land at the end of their turn, or make a Dexterity or Strength saving throw or fall from the sky",
          "Any open flames are extinguished by the wind"
        ]
      },
      {
        "name": "Blizzard",
        "rules": [
          "In addition to the effects of a normal storm, a blizzards reduce normal vision to 40 feet",
          "Perception checks that rely on sight have disadvantage"
        ]
      },
      {
        "name": "Thunderstorm",
        "rules": [
          "In addition to the effects of a normal storm, a thunderstorm reduce normal vision to 40 feet",
          "Perception checks that rely on sight have disadvantage"
        ]
      },
      {
        "name": "Heavy Rain",
        "rules": [
          "During heavy rain, effective weapon range is reduced by 50%.",
          "Any open flames are extinguished by the rain.",
          "Heavy rain causes disadvantage on Perception checks that rely on hearing and/or sight.",
          "Normal vision is reduced to 60 feet"
        ]
      },
      {
        "name": "Heavy Snow",
        "rules": [
          "During heavy snow, effective weapon range is reduced by 50%.",
          "Any open flames are extinguished by the snow.",
          "Heavy snow causes disadvantage on Perception checks that rely on sight.",
          "Normal vision is reduced to 60 feet"  
        ]
      },
      {
        "name": "Hail",
        "rules": [
          "During hail, effective weapon range is reduced by 50%.",
          "Hail causes disadvantage on Perception checks that rely on hearing and/or sight.",
          "Normal vision is reduced to 60 feet"
        ]
      },
      {
        "name": "Sandstorm",
        "rules": [
          "During a sandstorm, normal vision is reduced to 5 feet",
          "Any open flames are extinguished by the sand",
          "The sand also causes disadvantage on Perception checks that rely on sight."
        ]
      },
      {
        "name": "Fog",
        "rules": [
          "During fog normal vision is reduced to 15 feet",
          "The fog also causes disadvantage on perception checks that rely on sight."
        ]
      }
    ]
  }
}
